{
  "kind": "collectionType",
  "collectionName": "addresses",
  "info": {
    "name": "Address",
    "description": ""
  },
  "options": {
    "increments": true,
    "timestamps": true,
    "draftAndPublish": true
  },
  "pluginOptions": {},
  "attributes": {
    "location": {
      "type": "string"
    },
    "address": {
      "type": "string"
    },
    "userId": {
      "via": "address",
      "plugin": "users-permissions",
      "model": "user"
    },
    "pincode": {
      "type": "string"
    }
  }
}
