{
  "kind": "collectionType",
  "collectionName": "friends",
  "info": {
    "name": "Friends",
    "description": ""
  },
  "options": {
    "increments": true,
    "timestamps": true,
    "draftAndPublish": true
  },
  "pluginOptions": {},
  "attributes": {
    "requestFrom": {
      "plugin": "users-permissions",
      "model": "user"
    },
    "requestTo": {
      "plugin": "users-permissions",
      "model": "user"
    },
    "status": {
      "type": "boolean"
    }
  }
}
