{
  "routes": [
    {
      "method": "GET",
      "path": "/manage-payment-requests",
      "handler": "manage-payment-requests.find",
      "config": {
        "policies": []
      }
    },
    {
      "method": "GET",
      "path": "/manage-payment-requests/count",
      "handler": "manage-payment-requests.count",
      "config": {
        "policies": []
      }
    },
    {
      "method": "GET",
      "path": "/manage-payment-requests/:id",
      "handler": "manage-payment-requests.findOne",
      "config": {
        "policies": []
      }
    },
    {
      "method": "POST",
      "path": "/manage-payment-requests",
      "handler": "manage-payment-requests.create",
      "config": {
        "policies": []
      }
    },
    {
      "method": "PUT",
      "path": "/manage-payment-requests/:id",
      "handler": "manage-payment-requests.update",
      "config": {
        "policies": []
      }
    },
    {
      "method": "DELETE",
      "path": "/manage-payment-requests/:id",
      "handler": "manage-payment-requests.delete",
      "config": {
        "policies": []
      }
    }
  ]
}
