{
  "kind": "collectionType",
  "collectionName": "histories",
  "info": {
    "name": "history",
    "description": ""
  },
  "options": {
    "increments": true,
    "timestamps": true,
    "draftAndPublish": true
  },
  "pluginOptions": {},
  "attributes": {
    "video": {
      "via": "history",
      "model": "videos"
    },
    "userId": {
      "plugin": "users-permissions",
      "model": "user"
    }
  }
}
