{
  "kind": "collectionType",
  "collectionName": "invitations",
  "info": {
    "name": "invitation"
  },
  "options": {
    "increments": true,
    "timestamps": true,
    "draftAndPublish": true
  },
  "pluginOptions": {},
  "attributes": {
    "name": {
      "type": "string"
    },
    "email": {
      "type": "email"
    },
    "MobileNumber": {
      "type": "string"
    }
  }
}
