{
  "paths": {
    "/users-permissions/search/{id}": {
      "get": {
        "deprecated": false,
        "description": "Search for users",
        "responses": {
          "200": {
            "description": "response",
            "content": {
              "application/json": {
                "schema": {
                  "type": "array",
                  "items": {
                    "$ref": "#/components/schemas/UsersPermissionsUser"
                  }
                }
              }
            }
          },
          "403": {
            "description": "Forbidden",
            "content": {
              "application/json": {
                "schema": {
                  "$ref": "#/components/schemas/Error"
                }
              }
            }
          },
          "404": {
            "description": "Not found",
            "content": {
              "application/json": {
                "schema": {
                  "$ref": "#/components/schemas/Error"
                }
              }
            }
          },
          "default": {
            "description": "unexpected error",
            "content": {
              "application/json": {
                "schema": {
                  "$ref": "#/components/schemas/Error"
                }
              }
            }
          }
        },
        "summary": "",
        "tags": [
          "UsersPermissions - User"
        ],
        "parameters": [
          {
            "name": "id",
            "in": "path",
            "description": "",
            "deprecated": false,
            "required": true,
            "schema": {
              "type": "string"
            }
          },
          {
            "name": "_limit",
            "in": "query",
            "required": false,
            "description": "Maximum number of results possible",
            "schema": {
              "type": "integer"
            },
            "deprecated": false
          },
          {
            "name": "_sort",
            "in": "query",
            "required": false,
            "description": "Sort according to a specific field.",
            "schema": {
              "type": "string"
            },
            "deprecated": false
          },
          {
            "name": "_start",
            "in": "query",
            "required": false,
            "description": "Skip a specific number of entries (especially useful for pagination)",
            "schema": {
              "type": "integer"
            },
            "deprecated": false
          },
          {
            "name": "=",
            "in": "query",
            "required": false,
            "description": "Get entries that matches exactly your input",
            "schema": {
              "type": "string"
            },
            "deprecated": false
          },
          {
            "name": "_ne",
            "in": "query",
            "required": false,
            "description": "Get records that are not equals to something",
            "schema": {
              "type": "string"
            },
            "deprecated": false
          },
          {
            "name": "_lt",
            "in": "query",
            "required": false,
            "description": "Get record that are lower than a value",
            "schema": {
              "type": "string"
            },
            "deprecated": false
          },
          {
            "name": "_lte",
            "in": "query",
            "required": false,
            "description": "Get records that are lower than or equal to a value",
            "schema": {
              "type": "string"
            },
            "deprecated": false
          },
          {
            "name": "_gt",
            "in": "query",
            "required": false,
            "description": "Get records that are greater than a value",
            "schema": {
              "type": "string"
            },
            "deprecated": false
          },
          {
            "name": "_gte",
            "in": "query",
            "required": false,
            "description": "Get records that are greater than  or equal a value",
            "schema": {
              "type": "string"
            },
            "deprecated": false
          },
          {
            "name": "_contains",
            "in": "query",
            "required": false,
            "description": "Get records that contains a value",
            "schema": {
              "type": "string"
            },
            "deprecated": false
          },
          {
            "name": "_containss",
            "in": "query",
            "required": false,
            "description": "Get records that contains (case sensitive) a value",
            "schema": {
              "type": "string"
            },
            "deprecated": false
          },
          {
            "name": "_in",
            "in": "query",
            "required": false,
            "description": "Get records that matches any value in the array of values",
            "schema": {
              "type": "array",
              "items": {
                "type": "string"
              }
            },
            "deprecated": false
          },
          {
            "name": "_nin",
            "in": "query",
            "required": false,
            "description": "Get records that doesn't match any value in the array of values",
            "schema": {
              "type": "array",
              "items": {
                "type": "string"
              }
            },
            "deprecated": false
          }
        ]
      }
    },
    "/connect/*": {
      "get": {
        "deprecated": false,
        "description": "Connect a provider",
        "responses": {
          "200": {
            "description": "response",
            "content": {
              "application/json": {
                "schema": {
                  "properties": {
                    "foo": {
                      "type": "string"
                    }
                  }
                }
              }
            }
          },
          "403": {
            "description": "Forbidden",
            "content": {
              "application/json": {
                "schema": {
                  "$ref": "#/components/schemas/Error"
                }
              }
            }
          },
          "404": {
            "description": "Not found",
            "content": {
              "application/json": {
                "schema": {
                  "$ref": "#/components/schemas/Error"
                }
              }
            }
          },
          "default": {
            "description": "unexpected error",
            "content": {
              "application/json": {
                "schema": {
                  "$ref": "#/components/schemas/Error"
                }
              }
            }
          }
        },
        "summary": "",
        "tags": [
          "UsersPermissions - User"
        ],
        "parameters": []
      }
    },
    "/auth/local": {
      "post": {
        "deprecated": false,
        "description": "Login a user using the identifiers email and password",
        "responses": {
          "200": {
            "description": "response",
            "content": {
              "application/json": {
                "schema": {
                  "properties": {
                    "foo": {
                      "type": "string"
                    }
                  }
                }
              }
            }
          },
          "403": {
            "description": "Forbidden",
            "content": {
              "application/json": {
                "schema": {
                  "$ref": "#/components/schemas/Error"
                }
              }
            }
          },
          "404": {
            "description": "Not found",
            "content": {
              "application/json": {
                "schema": {
                  "$ref": "#/components/schemas/Error"
                }
              }
            }
          },
          "default": {
            "description": "unexpected error",
            "content": {
              "application/json": {
                "schema": {
                  "$ref": "#/components/schemas/Error"
                }
              }
            }
          }
        },
        "summary": "",
        "tags": [
          "UsersPermissions - User"
        ],
        "requestBody": {
          "description": "",
          "required": true,
          "content": {
            "application/json": {
              "schema": {
                "properties": {
                  "foo": {
                    "type": "string"
                  }
                }
              }
            }
          }
        }
      }
    },
    "/auth/local/register": {
      "post": {
        "deprecated": false,
        "description": "Register a new user with the default role",
        "responses": {
          "200": {
            "description": "response",
            "content": {
              "application/json": {
                "schema": {
                  "$ref": "#/components/schemas/UsersPermissionsUser"
                }
              }
            }
          },
          "403": {
            "description": "Forbidden",
            "content": {
              "application/json": {
                "schema": {
                  "$ref": "#/components/schemas/Error"
                }
              }
            }
          },
          "404": {
            "description": "Not found",
            "content": {
              "application/json": {
                "schema": {
                  "$ref": "#/components/schemas/Error"
                }
              }
            }
          },
          "default": {
            "description": "unexpected error",
            "content": {
              "application/json": {
                "schema": {
                  "$ref": "#/components/schemas/Error"
                }
              }
            }
          }
        },
        "summary": "",
        "tags": [
          "UsersPermissions - User"
        ],
        "requestBody": {
          "description": "",
          "required": true,
          "content": {
            "application/json": {
              "schema": {
                "$ref": "#/components/schemas/NewUsersPermissionsUser"
              }
            }
          }
        }
      }
    },
    "/auth/{provider}/callback": {
      "get": {
        "deprecated": false,
        "description": "Successfull redirection after approving a provider",
        "responses": {
          "200": {
            "description": "response",
            "content": {
              "application/json": {
                "schema": {
                  "properties": {
                    "foo": {
                      "type": "string"
                    }
                  }
                }
              }
            }
          },
          "403": {
            "description": "Forbidden",
            "content": {
              "application/json": {
                "schema": {
                  "$ref": "#/components/schemas/Error"
                }
              }
            }
          },
          "404": {
            "description": "Not found",
            "content": {
              "application/json": {
                "schema": {
                  "$ref": "#/components/schemas/Error"
                }
              }
            }
          },
          "default": {
            "description": "unexpected error",
            "content": {
              "application/json": {
                "schema": {
                  "$ref": "#/components/schemas/Error"
                }
              }
            }
          }
        },
        "summary": "",
        "tags": [
          "UsersPermissions - User"
        ],
        "parameters": [
          {
            "name": "provider",
            "in": "path",
            "description": "",
            "deprecated": false,
            "required": true,
            "schema": {
              "type": "string"
            }
          }
        ]
      }
    },
    "/auth/forgot-password": {
      "post": {
        "deprecated": false,
        "description": "Send the reset password email link",
        "responses": {
          "200": {
            "description": "response",
            "content": {
              "application/json": {
                "schema": {
                  "properties": {
                    "foo": {
                      "type": "string"
                    }
                  }
                }
              }
            }
          },
          "403": {
            "description": "Forbidden",
            "content": {
              "application/json": {
                "schema": {
                  "$ref": "#/components/schemas/Error"
                }
              }
            }
          },
          "404": {
            "description": "Not found",
            "content": {
              "application/json": {
                "schema": {
                  "$ref": "#/components/schemas/Error"
                }
              }
            }
          },
          "default": {
            "description": "unexpected error",
            "content": {
              "application/json": {
                "schema": {
                  "$ref": "#/components/schemas/Error"
                }
              }
            }
          }
        },
        "summary": "",
        "tags": [
          "UsersPermissions - User"
        ],
        "requestBody": {
          "description": "",
          "required": true,
          "content": {
            "application/json": {
              "schema": {
                "properties": {
                  "foo": {
                    "type": "string"
                  }
                }
              }
            }
          }
        }
      }
    },
    "/auth/reset-password": {
      "post": {
        "deprecated": false,
        "description": "Reset user password with a code (resetToken)",
        "responses": {
          "200": {
            "description": "response",
            "content": {
              "application/json": {
                "schema": {
                  "properties": {
                    "foo": {
                      "type": "string"
                    }
                  }
                }
              }
            }
          },
          "403": {
            "description": "Forbidden",
            "content": {
              "application/json": {
                "schema": {
                  "$ref": "#/components/schemas/Error"
                }
              }
            }
          },
          "404": {
            "description": "Not found",
            "content": {
              "application/json": {
                "schema": {
                  "$ref": "#/components/schemas/Error"
                }
              }
            }
          },
          "default": {
            "description": "unexpected error",
            "content": {
              "application/json": {
                "schema": {
                  "$ref": "#/components/schemas/Error"
                }
              }
            }
          }
        },
        "summary": "",
        "tags": [
          "UsersPermissions - User"
        ],
        "requestBody": {
          "description": "",
          "required": true,
          "content": {
            "application/json": {
              "schema": {
                "properties": {
                  "foo": {
                    "type": "string"
                  }
                }
              }
            }
          }
        }
      }
    },
    "/auth/email-confirmation": {
      "get": {
        "deprecated": false,
        "description": "Validate a user account",
        "responses": {
          "200": {
            "description": "response",
            "content": {
              "application/json": {
                "schema": {
                  "properties": {
                    "foo": {
                      "type": "string"
                    }
                  }
                }
              }
            }
          },
          "403": {
            "description": "Forbidden",
            "content": {
              "application/json": {
                "schema": {
                  "$ref": "#/components/schemas/Error"
                }
              }
            }
          },
          "404": {
            "description": "Not found",
            "content": {
              "application/json": {
                "schema": {
                  "$ref": "#/components/schemas/Error"
                }
              }
            }
          },
          "default": {
            "description": "unexpected error",
            "content": {
              "application/json": {
                "schema": {
                  "$ref": "#/components/schemas/Error"
                }
              }
            }
          }
        },
        "summary": "",
        "tags": [
          "UsersPermissions - User"
        ],
        "parameters": []
      }
    },
    "/auth/send-email-confirmation": {
      "post": {
        "deprecated": false,
        "description": "Send a confirmation email to user",
        "responses": {
          "200": {
            "description": "response",
            "content": {
              "application/json": {
                "schema": {
                  "properties": {
                    "foo": {
                      "type": "string"
                    }
                  }
                }
              }
            }
          },
          "403": {
            "description": "Forbidden",
            "content": {
              "application/json": {
                "schema": {
                  "$ref": "#/components/schemas/Error"
                }
              }
            }
          },
          "404": {
            "description": "Not found",
            "content": {
              "application/json": {
                "schema": {
                  "$ref": "#/components/schemas/Error"
                }
              }
            }
          },
          "default": {
            "description": "unexpected error",
            "content": {
              "application/json": {
                "schema": {
                  "$ref": "#/components/schemas/Error"
                }
              }
            }
          }
        },
        "summary": "",
        "tags": [
          "UsersPermissions - User"
        ],
        "requestBody": {
          "description": "",
          "required": true,
          "content": {
            "application/json": {
              "schema": {
                "properties": {
                  "foo": {
                    "type": "string"
                  }
                }
              }
            }
          }
        }
      }
    },
    "/users": {
      "get": {
        "deprecated": false,
        "description": "Retrieve all user documents",
        "responses": {
          "200": {
            "description": "response",
            "content": {
              "application/json": {
                "schema": {
                  "type": "array",
                  "items": {
                    "$ref": "#/components/schemas/UsersPermissionsUser"
                  }
                }
              }
            }
          },
          "403": {
            "description": "Forbidden",
            "content": {
              "application/json": {
                "schema": {
                  "$ref": "#/components/schemas/Error"
                }
              }
            }
          },
          "404": {
            "description": "Not found",
            "content": {
              "application/json": {
                "schema": {
                  "$ref": "#/components/schemas/Error"
                }
              }
            }
          },
          "default": {
            "description": "unexpected error",
            "content": {
              "application/json": {
                "schema": {
                  "$ref": "#/components/schemas/Error"
                }
              }
            }
          }
        },
        "summary": "",
        "tags": [
          "UsersPermissions - User"
        ],
        "parameters": [
          {
            "name": "_limit",
            "in": "query",
            "required": false,
            "description": "Maximum number of results possible",
            "schema": {
              "type": "integer"
            },
            "deprecated": false
          },
          {
            "name": "_sort",
            "in": "query",
            "required": false,
            "description": "Sort according to a specific field.",
            "schema": {
              "type": "string"
            },
            "deprecated": false
          },
          {
            "name": "_start",
            "in": "query",
            "required": false,
            "description": "Skip a specific number of entries (especially useful for pagination)",
            "schema": {
              "type": "integer"
            },
            "deprecated": false
          },
          {
            "name": "=",
            "in": "query",
            "required": false,
            "description": "Get entries that matches exactly your input",
            "schema": {
              "type": "string"
            },
            "deprecated": false
          },
          {
            "name": "_ne",
            "in": "query",
            "required": false,
            "description": "Get records that are not equals to something",
            "schema": {
              "type": "string"
            },
            "deprecated": false
          },
          {
            "name": "_lt",
            "in": "query",
            "required": false,
            "description": "Get record that are lower than a value",
            "schema": {
              "type": "string"
            },
            "deprecated": false
          },
          {
            "name": "_lte",
            "in": "query",
            "required": false,
            "description": "Get records that are lower than or equal to a value",
            "schema": {
              "type": "string"
            },
            "deprecated": false
          },
          {
            "name": "_gt",
            "in": "query",
            "required": false,
            "description": "Get records that are greater than a value",
            "schema": {
              "type": "string"
            },
            "deprecated": false
          },
          {
            "name": "_gte",
            "in": "query",
            "required": false,
            "description": "Get records that are greater than  or equal a value",
            "schema": {
              "type": "string"
            },
            "deprecated": false
          },
          {
            "name": "_contains",
            "in": "query",
            "required": false,
            "description": "Get records that contains a value",
            "schema": {
              "type": "string"
            },
            "deprecated": false
          },
          {
            "name": "_containss",
            "in": "query",
            "required": false,
            "description": "Get records that contains (case sensitive) a value",
            "schema": {
              "type": "string"
            },
            "deprecated": false
          },
          {
            "name": "_in",
            "in": "query",
            "required": false,
            "description": "Get records that matches any value in the array of values",
            "schema": {
              "type": "array",
              "items": {
                "type": "string"
              }
            },
            "deprecated": false
          },
          {
            "name": "_nin",
            "in": "query",
            "required": false,
            "description": "Get records that doesn't match any value in the array of values",
            "schema": {
              "type": "array",
              "items": {
                "type": "string"
              }
            },
            "deprecated": false
          }
        ]
      }
    },
    "/users/me": {
      "get": {
        "deprecated": false,
        "description": "Retrieve the logged in user information",
        "responses": {
          "200": {
            "description": "response",
            "content": {
              "application/json": {
                "schema": {
                  "$ref": "#/components/schemas/UsersPermissionsUser"
                }
              }
            }
          },
          "403": {
            "description": "Forbidden",
            "content": {
              "application/json": {
                "schema": {
                  "$ref": "#/components/schemas/Error"
                }
              }
            }
          },
          "404": {
            "description": "Not found",
            "content": {
              "application/json": {
                "schema": {
                  "$ref": "#/components/schemas/Error"
                }
              }
            }
          },
          "default": {
            "description": "unexpected error",
            "content": {
              "application/json": {
                "schema": {
                  "$ref": "#/components/schemas/Error"
                }
              }
            }
          }
        },
        "summary": "",
        "tags": [
          "UsersPermissions - User"
        ],
        "parameters": []
      }
    },
    "/users/{id}": {
      "get": {
        "deprecated": false,
        "description": "Retrieve a single user depending on his id",
        "responses": {
          "200": {
            "description": "response",
            "content": {
              "application/json": {
                "schema": {
                  "$ref": "#/components/schemas/UsersPermissionsUser"
                }
              }
            }
          },
          "403": {
            "description": "Forbidden",
            "content": {
              "application/json": {
                "schema": {
                  "$ref": "#/components/schemas/Error"
                }
              }
            }
          },
          "404": {
            "description": "Not found",
            "content": {
              "application/json": {
                "schema": {
                  "$ref": "#/components/schemas/Error"
                }
              }
            }
          },
          "default": {
            "description": "unexpected error",
            "content": {
              "application/json": {
                "schema": {
                  "$ref": "#/components/schemas/Error"
                }
              }
            }
          }
        },
        "summary": "",
        "tags": [
          "UsersPermissions - User"
        ],
        "parameters": [
          {
            "name": "id",
            "in": "path",
            "description": "",
            "deprecated": false,
            "required": true,
            "schema": {
              "type": "string"
            }
          }
        ]
      },
      "put": {
        "deprecated": false,
        "description": "Update an existing user",
        "responses": {
          "200": {
            "description": "response",
            "content": {
              "application/json": {
                "schema": {
                  "$ref": "#/components/schemas/UsersPermissionsUser"
                }
              }
            }
          },
          "403": {
            "description": "Forbidden",
            "content": {
              "application/json": {
                "schema": {
                  "$ref": "#/components/schemas/Error"
                }
              }
            }
          },
          "404": {
            "description": "Not found",
            "content": {
              "application/json": {
                "schema": {
                  "$ref": "#/components/schemas/Error"
                }
              }
            }
          },
          "default": {
            "description": "unexpected error",
            "content": {
              "application/json": {
                "schema": {
                  "$ref": "#/components/schemas/Error"
                }
              }
            }
          }
        },
        "summary": "",
        "tags": [
          "UsersPermissions - User"
        ],
        "parameters": [
          {
            "name": "id",
            "in": "path",
            "description": "",
            "deprecated": false,
            "required": true,
            "schema": {
              "type": "string"
            }
          }
        ],
        "requestBody": {
          "description": "",
          "required": true,
          "content": {
            "application/json": {
              "schema": {
                "$ref": "#/components/schemas/NewUsersPermissionsUser"
              }
            }
          }
        }
      },
      "delete": {
        "deprecated": false,
        "description": "Delete an existing user",
        "responses": {
          "200": {
            "description": "response",
            "content": {
              "application/json": {
                "schema": {
                  "properties": {
                    "foo": {
                      "type": "string"
                    }
                  }
                }
              }
            }
          },
          "403": {
            "description": "Forbidden",
            "content": {
              "application/json": {
                "schema": {
                  "$ref": "#/components/schemas/Error"
                }
              }
            }
          },
          "404": {
            "description": "Not found",
            "content": {
              "application/json": {
                "schema": {
                  "$ref": "#/components/schemas/Error"
                }
              }
            }
          },
          "default": {
            "description": "unexpected error",
            "content": {
              "application/json": {
                "schema": {
                  "$ref": "#/components/schemas/Error"
                }
              }
            }
          }
        },
        "summary": "",
        "tags": [
          "UsersPermissions - User"
        ],
        "parameters": [
          {
            "name": "id",
            "in": "path",
            "description": "",
            "deprecated": false,
            "required": true,
            "schema": {
              "type": "string"
            }
          }
        ]
      }
    }
  },
  "components": {
    "schemas": {
      "UsersPermissionsUser": {
        "required": [
          "id",
          "username",
          "email"
        ],
        "properties": {
          "id": {
            "type": "string"
          },
          "username": {
            "type": "string",
            "minLength": 3
          },
          "email": {
            "type": "string",
            "minLength": 6
          },
          "provider": {
            "type": "string"
          },
          "confirmed": {
            "type": "boolean",
            "default": false
          },
          "blocked": {
            "type": "boolean",
            "default": false
          },
          "role": {
            "required": [
              "id",
              "name"
            ],
            "properties": {
              "id": {
                "type": "string"
              },
              "name": {
                "type": "string"
              },
              "description": {
                "type": "string"
              },
              "type": {
                "type": "string"
              },
              "permissions": {
                "type": "array",
                "items": {
                  "type": "string"
                }
              },
              "users": {
                "type": "array",
                "items": {
                  "type": "string"
                }
              },
              "created_by": {
                "type": "string"
              },
              "updated_by": {
                "type": "string"
              }
            }
          },
          "MobileNumber": {
            "type": "string"
          },
          "histories": {
            "type": "array",
            "items": {
              "required": [
                "id"
              ],
              "properties": {
                "id": {
                  "type": "string"
                },
                "video": {
                  "type": "string"
                },
                "userId": {
                  "type": "string"
                },
                "published_at": {
                  "type": "string"
                },
                "created_by": {
                  "type": "string"
                },
                "updated_by": {
                  "type": "string"
                }
              }
            }
          },
          "Privacy": {
            "type": "boolean"
          },
          "firstName": {
            "type": "string"
          },
          "lastName": {
            "type": "string"
          },
          "gender": {
            "type": "string"
          },
          "followingCategories": {
            "type": "array",
            "items": {
              "required": [
                "id"
              ],
              "properties": {
                "id": {
                  "type": "string"
                },
                "name": {
                  "type": "string"
                },
                "upload_video": {
                  "type": "string"
                },
                "movie": {
                  "type": "string"
                },
                "backBlazeImageUrl": {
                  "type": "string"
                },
                "isSelected": {
                  "type": "boolean"
                },
                "published_at": {
                  "type": "string"
                },
                "created_by": {
                  "type": "string"
                },
                "updated_by": {
                  "type": "string"
                }
              }
            }
          },
          "feed": {
            "type": "array",
            "items": {
              "required": [
                "id"
              ],
              "properties": {
                "id": {
                  "type": "string"
                },
                "feedDesc": {
                  "type": "string"
                },
                "feedPostedBy": {
                  "type": "string"
                },
                "commentsCount": {
                  "type": "integer"
                },
                "likesCount": {
                  "type": "integer"
                },
                "shareCount": {
                  "type": "integer"
                },
                "comments": {
                  "type": "array",
                  "items": {
                    "type": "string"
                  }
                },
                "likes": {
                  "type": "array",
                  "items": {
                    "type": "string"
                  }
                },
                "name": {
                  "type": "string"
                },
                "viewCount": {
                  "type": "string"
                },
                "bookmarks": {
                  "type": "array",
                  "items": {
                    "type": "string"
                  }
                },
                "dislikes": {
                  "type": "array",
                  "items": {
                    "type": "string"
                  }
                },
                "backBlazeImageUrl": {
                  "type": "string"
                },
                "backBlazeMultiImageUrl": {
                  "type": "component"
                },
                "share": {
                  "type": "string"
                },
                "published_at": {
                  "type": "string"
                },
                "created_by": {
                  "type": "string"
                },
                "updated_by": {
                  "type": "string"
                }
              }
            }
          },
          "bgm": {
            "required": [
              "id"
            ],
            "properties": {
              "id": {
                "type": "string"
              },
              "bgmName": {
                "type": "string"
              },
              "bgmUploadedBy": {
                "type": "string"
              },
              "bgmNoOfUsersUsing": {
                "type": "integer"
              },
              "bgmBackblazeUrl": {
                "type": "string"
              },
              "bgmBlackblazeImgUrl": {
                "type": "string"
              },
              "published_at": {
                "type": "string"
              },
              "created_by": {
                "type": "string"
              },
              "updated_by": {
                "type": "string"
              }
            }
          },
          "rewardedPoints": {
            "type": "integer"
          },
          "videos": {
            "type": "array",
            "items": {
              "required": [
                "id"
              ],
              "properties": {
                "id": {
                  "type": "string"
                },
                "title": {
                  "type": "string"
                },
                "viewCount": {
                  "type": "string"
                },
                "addToPlaylist": {
                  "type": "boolean"
                },
                "description": {
                  "type": "string"
                },
                "tags": {
                  "type": "string"
                },
                "shares": {
                  "type": "array",
                  "items": {
                    "type": "string"
                  }
                },
                "categories": {
                  "type": "array",
                  "items": {
                    "type": "string"
                  }
                },
                "details": {
                  "type": "string"
                },
                "commentsCount": {
                  "type": "integer"
                },
                "likesCount": {
                  "type": "integer"
                },
                "isTrending": {
                  "type": "boolean"
                },
                "isLatest": {
                  "type": "boolean"
                },
                "history": {
                  "type": "string"
                },
                "comment": {
                  "type": "array",
                  "items": {
                    "type": "string"
                  }
                },
                "uploadedBy": {
                  "type": "string"
                },
                "Duration": {
                  "type": "string"
                },
                "dislikes": {
                  "type": "array",
                  "items": {
                    "type": "string"
                  }
                },
                "dislikesCount": {
                  "type": "integer"
                },
                "bookMarkVideo": {
                  "type": "string"
                },
                "uploadedYear": {
                  "type": "integer"
                },
                "channelVideo": {
                  "type": "string"
                },
                "backBlazeVideoUrl": {
                  "type": "string"
                },
                "duration": {
                  "type": "number"
                },
                "likes": {
                  "type": "array",
                  "items": {
                    "type": "string"
                  }
                },
                "coverImageLink": {
                  "type": "string"
                },
                "published_at": {
                  "type": "string"
                },
                "created_by": {
                  "type": "string"
                },
                "updated_by": {
                  "type": "string"
                }
              }
            }
          },
          "followingCount": {
            "type": "string"
          },
          "followersCount": {
            "type": "string"
          },
          "playList": {
            "type": "array",
            "items": {
              "required": [
                "id"
              ],
              "properties": {
                "id": {
                  "type": "string"
                },
                "playListName": {
                  "type": "string"
                },
                "user": {
                  "type": "string"
                },
                "playlistVideo": {
                  "type": "string"
                },
                "published_at": {
                  "type": "string"
                },
                "created_by": {
                  "type": "string"
                },
                "updated_by": {
                  "type": "string"
                }
              }
            }
          },
          "movies": {
            "type": "array",
            "items": {
              "required": [
                "id"
              ],
              "properties": {
                "id": {
                  "type": "string"
                },
                "title": {
                  "type": "string"
                },
                "description": {
                  "type": "string"
                },
                "details": {
                  "type": "string"
                },
                "shares": {
                  "type": "array",
                  "items": {
                    "type": "string"
                  }
                },
                "categories": {
                  "type": "array",
                  "items": {
                    "type": "string"
                  }
                },
                "comments": {
                  "type": "array",
                  "items": {
                    "type": "string"
                  }
                },
                "like": {
                  "type": "string"
                },
                "uploadedBy": {
                  "type": "string"
                },
                "Duration": {
                  "type": "string"
                },
                "dateAndTime": {
                  "type": "string"
                },
                "backBlazeMovieUrl": {
                  "type": "string"
                },
                "published_at": {
                  "type": "string"
                },
                "created_by": {
                  "type": "string"
                },
                "updated_by": {
                  "type": "string"
                }
              }
            }
          },
          "audioRoom": {
            "required": [
              "id"
            ],
            "properties": {
              "id": {
                "type": "string"
              },
              "audioRoomName": {
                "type": "string"
              },
              "audioRoomDesc": {
                "type": "string"
              },
              "audioRoomType": {
                "type": "string"
              },
              "audioRoomPeople": {
                "type": "array",
                "items": {
                  "type": "string"
                }
              },
              "audioRoomAdmins": {
                "type": "array",
                "items": {
                  "type": "string"
                }
              },
              "published_at": {
                "type": "string"
              },
              "created_by": {
                "type": "string"
              },
              "updated_by": {
                "type": "string"
              }
            }
          },
          "isActive": {
            "type": "boolean"
          },
          "channels": {
            "type": "array",
            "items": {
              "required": [
                "id"
              ],
              "properties": {
                "id": {
                  "type": "string"
                },
                "channelName": {
                  "type": "string"
                },
                "channelDesc": {
                  "type": "string"
                },
                "channelVideo": {
                  "type": "string"
                },
                "backBlazeCoverImg": {
                  "type": "string"
                },
                "channelCreatedBy": {
                  "type": "string"
                },
                "subscriptions": {
                  "type": "array",
                  "items": {
                    "type": "string"
                  }
                },
                "published_at": {
                  "type": "string"
                },
                "created_by": {
                  "type": "string"
                },
                "updated_by": {
                  "type": "string"
                }
              }
            }
          },
          "share": {
            "required": [
              "id"
            ],
            "properties": {
              "id": {
                "type": "string"
              },
              "short": {
                "type": "string"
              },
              "video": {
                "type": "string"
              },
              "movie": {
                "type": "string"
              },
              "sharedBy": {
                "type": "string"
              },
              "feed": {
                "type": "string"
              },
              "rewardVideo": {
                "type": "string"
              },
              "published_at": {
                "type": "string"
              },
              "created_by": {
                "type": "string"
              },
              "updated_by": {
                "type": "string"
              }
            }
          },
          "address": {
            "required": [
              "id"
            ],
            "properties": {
              "id": {
                "type": "string"
              },
              "location": {
                "type": "string"
              },
              "address": {
                "type": "string"
              },
              "userId": {
                "type": "string"
              },
              "pincode": {
                "type": "string"
              },
              "published_at": {
                "type": "string"
              },
              "created_by": {
                "type": "string"
              },
              "updated_by": {
                "type": "string"
              }
            }
          },
          "backBlazeImageUrl": {
            "type": "string"
          },
          "followers": {
            "type": "array",
            "items": {
              "required": [
                "id"
              ],
              "properties": {
                "id": {
                  "type": "string"
                },
                "followersProfiles": {
                  "type": "array",
                  "items": {
                    "type": "string"
                  }
                },
                "user": {
                  "type": "string"
                },
                "published_at": {
                  "type": "string"
                },
                "created_by": {
                  "type": "string"
                },
                "updated_by": {
                  "type": "string"
                }
              }
            }
          },
          "shorts": {
            "type": "array",
            "items": {
              "required": [
                "id"
              ],
              "properties": {
                "id": {
                  "type": "string"
                },
                "shares": {
                  "type": "array",
                  "items": {
                    "type": "string"
                  }
                },
                "bgms": {
                  "type": "array",
                  "items": {
                    "type": "string"
                  }
                },
                "viewCount": {
                  "type": "string"
                },
                "description": {
                  "type": "string"
                },
                "duration": {
                  "type": "string"
                },
                "title": {
                  "type": "string"
                },
                "tags": {
                  "type": "string"
                },
                "commentsCount": {
                  "type": "integer"
                },
                "likesCount": {
                  "type": "integer"
                },
                "dislike": {
                  "type": "string"
                },
                "backBlazeSpolaUrl": {
                  "type": "string"
                },
                "likes": {
                  "type": "array",
                  "items": {
                    "type": "string"
                  }
                },
                "uploadedBy": {
                  "type": "string"
                },
                "comments": {
                  "type": "array",
                  "items": {
                    "type": "string"
                  }
                },
                "coverImageLink": {
                  "type": "string"
                },
                "published_at": {
                  "type": "string"
                },
                "created_by": {
                  "type": "string"
                },
                "updated_by": {
                  "type": "string"
                }
              }
            }
          },
          "carts": {
            "type": "array",
            "items": {
              "required": [
                "id"
              ],
              "properties": {
                "id": {
                  "type": "string"
                },
                "productId": {
                  "type": "string"
                },
                "userId": {
                  "type": "string"
                },
                "published_at": {
                  "type": "string"
                },
                "created_by": {
                  "type": "string"
                },
                "updated_by": {
                  "type": "string"
                }
              }
            }
          },
          "device": {
            "required": [
              "id"
            ],
            "properties": {
              "id": {
                "type": "string"
              },
              "deviceType": {
                "type": "string"
              },
              "deviceId": {
                "type": "string"
              },
              "deviceOs": {
                "type": "string"
              },
              "user": {
                "type": "string"
              },
              "deviceToken": {
                "type": "string"
              },
              "published_at": {
                "type": "string"
              },
              "created_by": {
                "type": "string"
              },
              "updated_by": {
                "type": "string"
              }
            }
          },
          "rewardVideo": {
            "type": "array",
            "items": {
              "required": [
                "id"
              ],
              "properties": {
                "id": {
                  "type": "string"
                },
                "rewardedPoints": {
                  "type": "string"
                },
                "videoUrl": {
                  "type": "string"
                },
                "amountPaid": {
                  "type": "string"
                },
                "title": {
                  "type": "string"
                },
                "description": {
                  "type": "string"
                },
                "comments": {
                  "type": "array",
                  "items": {
                    "type": "string"
                  }
                },
                "uploadedBy": {
                  "type": "string"
                },
                "dislikes": {
                  "type": "array",
                  "items": {
                    "type": "string"
                  }
                },
                "bookmarkVideo": {
                  "type": "string"
                },
                "channelVideo": {
                  "type": "string"
                },
                "likes": {
                  "type": "array",
                  "items": {
                    "type": "string"
                  }
                },
                "shares": {
                  "type": "array",
                  "items": {
                    "type": "string"
                  }
                },
                "published_at": {
                  "type": "string"
                },
                "created_by": {
                  "type": "string"
                },
                "updated_by": {
                  "type": "string"
                }
              }
            }
          }
        }
      },
      "NewUsersPermissionsUser": {
        "required": [
          "username",
          "email"
        ],
        "properties": {
          "username": {
            "type": "string",
            "minLength": 3
          },
          "email": {
            "type": "string",
            "minLength": 6
          },
          "provider": {
            "type": "string"
          },
          "password": {
            "type": "string",
            "format": "password",
            "minLength": 6
          },
          "resetPasswordToken": {
            "type": "string"
          },
          "confirmationToken": {
            "type": "string"
          },
          "confirmed": {
            "type": "boolean",
            "default": false
          },
          "blocked": {
            "type": "boolean",
            "default": false
          },
          "role": {
            "type": "string"
          },
          "MobileNumber": {
            "type": "string"
          },
          "histories": {
            "type": "array",
            "items": {
              "type": "string"
            }
          },
          "Privacy": {
            "type": "boolean"
          },
          "firstName": {
            "type": "string"
          },
          "lastName": {
            "type": "string"
          },
          "gender": {
            "type": "string"
          },
          "followingCategories": {
            "type": "array",
            "items": {
              "type": "string"
            }
          },
          "feed": {
            "type": "array",
            "items": {
              "type": "string"
            }
          },
          "bgm": {
            "type": "string"
          },
          "rewardedPoints": {
            "type": "integer"
          },
          "videos": {
            "type": "array",
            "items": {
              "type": "string"
            }
          },
          "followingCount": {
            "type": "string"
          },
          "followersCount": {
            "type": "string"
          },
          "playList": {
            "type": "array",
            "items": {
              "type": "string"
            }
          },
          "movies": {
            "type": "array",
            "items": {
              "type": "string"
            }
          },
          "audioRoom": {
            "type": "string"
          },
          "isActive": {
            "type": "boolean"
          },
          "channels": {
            "type": "array",
            "items": {
              "type": "string"
            }
          },
          "share": {
            "type": "string"
          },
          "address": {
            "type": "string"
          },
          "backBlazeImageUrl": {
            "type": "string"
          },
          "followers": {
            "type": "array",
            "items": {
              "type": "string"
            }
          },
          "shorts": {
            "type": "array",
            "items": {
              "type": "string"
            }
          },
          "carts": {
            "type": "array",
            "items": {
              "type": "string"
            }
          },
          "device": {
            "type": "string"
          },
          "rewardVideo": {
            "type": "array",
            "items": {
              "type": "string"
            }
          },
          "created_by": {
            "type": "string"
          },
          "updated_by": {
            "type": "string"
          }
        }
      }
    }
  },
  "tags": [
    {
      "name": "UsersPermissions - User"
    }
  ]
}