{
    "provider": "backblaze-b2",
    "providerOptions": {
      "accountId": "b0c1095bd5a9",
      "applicationKey": "0040ed2c52b91b70dabcb8171ddbb0190f1432d337",
      "bucket": "spolaApp"
    }
  }