{
  "kind": "collectionType",
  "collectionName": "audio_rooms",
  "info": {
    "name": "AudioRoom",
    "description": ""
  },
  "options": {
    "increments": true,
    "timestamps": true,
    "draftAndPublish": true
  },
  "pluginOptions": {},
  "attributes": {
    "audioRoomName": {
      "type": "string"
    },
    "audioRoomDesc": {
      "type": "string"
    },
    "audioRoomType": {
      "type": "string"
    },
    "audioRoomPeople": {
      "collection": "user",
      "plugin": "users-permissions"
    },
    "audioRoomAdmins": {
      "via": "audioRoom",
      "plugin": "users-permissions",
      "collection": "user"
    }
  }
}
